1 R Fundamentals for SAS Users – R tutorial: Beginner to Expert
…
5.9.2 Tibble vs Data Frame Differences

# Difference 1: Printing
# Data frames print everything, tibbles show first 10 rows
df_large <- data.frame(x = 1:100, y = 101:200)
tbl_large <- tibble(x = 1:100, y = 101:200)
# print(df_large)   # Would print all 100 rows
print(tbl_large)    # Prints first 10 rows nicely

# A tibble: 100 × 2
       x     y
   <int> <int>
 1     1   101
 2     2   102
 3     3   103
 4     4   104
 5     5   105
 6     6   106
 7     7   107
 8     8   108
 9     9   109
10    10   110
# ℹ 90 more rows
…
